…
# Summarize homicides
summary <- homicide_dta |>
  group_by(city_state) |>
  summarise(
    total_homicides = n(),
    unsolved_homicides = sum(disposition %in% c("Closed without arrest", "Open/No arrest")),
    solved_homicides = sum(disposition == "Closed by arrest")
  )

# View summary
print(summary)
```

    ## # A tibble: 50 × 4
    ##    city_state      total_homicides unsolved_homicides solved_homicides
    ##    <chr>                     <int>              <int>            <int>
    ##  1 Albuquerque, NM             378                146              232
    ##  2 Atlanta, GA                 973                373              600
    ##  3 Baltimore, MD              2827               1825             1002
    ##  4 Baton Rouge, LA             424                196              228
    ##  5 Birmingham, AL              800                347              453
    ##  6 Boston, MA                  614                310              304
    ##  7 Buffalo, NY                 521                319              202
    ##  8 Charlotte, NC               687                206              481
    ##  9 Chicago, IL                5535               4073             1462
    ## 10 Cincinnati, OH              694                309              385
    ## # ℹ 40 more rows
…
# View results
city_results
```

    ## # A tibble: 50 × 4
    ##    city_state      estimate conf.low conf.high
    ##    <chr>              <dbl>    <dbl>     <dbl>
    ##  1 Albuquerque, NM    0.249    0.207     0.296
    ##  2 Atlanta, GA        0.324    0.295     0.354
    ##  3 Baltimore, MD      0.592    0.573     0.610
    ##  4 Baton Rouge, LA    0.425    0.377     0.473
    ##  5 Birmingham, AL     0.354    0.321     0.388
    ##  6 Boston, MA         0.505    0.465     0.545
    ##  7 Buffalo, NY        0.597    0.553     0.639
    ##  8 Charlotte, NC      0.236    0.205     0.270
    ##  9 Chicago, IL        0.666    0.653     0.678
    ## 10 Cincinnati, OH     0.375    0.339     0.412
    ## # ℹ 40 more rows
…
